/* XPM */
static char *control_center_[] = {
/* columns rows colors chars-per-pixel */
"24 24 4 1",
"o c #ffff00",
". c #00ff00",
"* c #00ffff",
"  c None",
/* pixels */
"                        ",
"                        "
"                        ",
"                        ",
"                        ",
"                        ",
"                        ",
"   ...    ...    ...    ",
"  .      .      .       ",
" .      .      .        ",
" .      .      .        ",
" ....   ....   ....     ",
" .   .  .   .  .   .    ",
" .   .  .   .  .   .    ",
" .   .  .   .  .   .    ",
" .   .  .   .  .   .    ",
"  ...    ...    ...     ",
"                        ",
"                        ",
"                        ",
"                        ",
"                        ",
"                        ",
"                        "
};
