<?xml version="1.0" encoding="UTF-8"?>
<osm version="0.6" generator="CGImap 0.0.2">
 <node id="10" lat="51.0000000" lon="4.1000000"/>
 <node id="20" lat="51.7000000" lon="4.6000000"/>
 <node id="30" lat="51.4000000" lon="4.8000000"/>
 <node id="40" lat="51.3000000" lon="4.4000000"/>
 <node id="50" lat="51.8000000" lon="4.3000000"/>
 <node id="60" lat="51.6000000" lon="4.0000000"/>
 <node id="70" lat="51.1000000" lon="4.8000000"/>
 <node id="80" lat="51.7000000" lon="5.0000000"/>
 <node id="90" lat="51.6000000" lon="4.4000000"/>
 <way id="100">
  <nd ref="10"/>
  <nd ref="70"/>
  <tag k="highway" v="unclassified"/>
  <tag k="name" v="a"/>
 </way>
 <way id="200">
  <nd ref="40"/>
  <nd ref="70"/>
  <tag k="highway" v="unclassified"/>
  <tag k="name" v="b"/>
 </way>
 <way id="300">
  <nd ref="20"/>
  <nd ref="50"/>
  <tag k="highway" v="unclassified"/>
  <tag k="name" v="c"/>
 </way>
 <way id="400">
  <nd ref="30"/>
  <nd ref="20"/>
  <tag k="highway" v="unclassified"/>
  <tag k="name" v="d"/>
 </way>
 <way id="500">
  <nd ref="30"/>
  <nd ref="80"/>
  <tag k="highway" v="unclassified"/>
  <tag k="name" v="e"/>
 </way>
 <way id="600">
  <nd ref="20"/>
  <nd ref="80"/>
  <tag k="highway" v="unclassified"/>
  <tag k="name" v="f"/>
 </way>
 <way id="700">
  <nd ref="40"/>
  <nd ref="20"/>
  <tag k="highway" v="unclassified"/>
  <tag k="name" v="g"/>
 </way>
 <way id="800">
  <nd ref="60"/>
  <nd ref="10"/>
  <tag k="oneway" v="yes"/>
  <tag k="highway" v="unclassified"/>
  <tag k="name" v="h"/>
 </way>
 <way id="900">
  <nd ref="60"/>
  <nd ref="90"/>
  <nd ref="40"/>
  <tag k="oneway" v="yes"/>
  <tag k="highway" v="unclassified"/>
  <tag k="name" v="i"/>
 </way>
 <way id="1000">
  <nd ref="10"/>
  <nd ref="40"/>
  <tag k="highway" v="unclassified"/>
  <tag k="oneway" v="yes"/>
  <tag k="name" v="j"/>
 </way>
 <way id="1100">
  <nd ref="50"/>
  <nd ref="60"/>
  <tag k="highway" v="unclassified"/>
  <tag k="oneway" v="yes"/>
  <tag k="name" v="k"/>
 </way>
 <way id="1200">
  <nd ref="40"/>
  <nd ref="30"/>
  <tag k="highway" v="unclassified"/>
  <tag k="name" v="l"/>
 </way>
 <way id="1300">
  <nd ref="30"/>
  <nd ref="70"/>
  <tag k="highway" v="unclassified"/>
  <tag k="name" v="m"/>
 </way>
</osm>
